{
	"forge_marker" : 1,
	"variants":{
		"open":{
			"true":{
				"model":"pirates:block/hatches/hatch_solid_open"
			},
			"false":{
				"model":"pirates:block/hatches/hatch_solid_closed"
			}
		},
		"facing":{
			"north":{
				"y": 0
			},
			"east":{
				"y": 90
			},
			"south":{
				"y": 180
			},
			"west":{
				"y": 270
			}
		}
	}
}