{
	"credit": "Made with Blockbench",
	"textures": {
		"0": "block/stripped_oak_log",
		"1": "pirates:block/brass",
		"2": "pirates:item/sword_blade",
		"particle": "block/stripped_oak_log"
	},
	"elements": [
		{
			"from": [7, 0, 7.25],
			"to": [10, 1, 11],
			"faces": {
				"north": {"uv": [6, 15, 9, 16], "texture": "#1"},
				"east": {"uv": [5, 15, 8.75, 16], "texture": "#1"},
				"south": {"uv": [7, 15, 10, 16], "texture": "#1"},
				"west": {"uv": [7.25, 15, 11, 16], "texture": "#1"},
				"up": {"uv": [7, 7.25, 10, 11], "texture": "#1"},
				"down": {"uv": [7, 5, 10, 8.75], "texture": "#1"}
			}
		},
		{
			"from": [8, 0, 4.5],
			"to": [9, 1, 7.25],
			"rotation": {"angle": 0, "axis": "y", "origin": [7, 8, 4.25]},
			"faces": {
				"north": {"uv": [7, 15, 8, 16], "texture": "#1"},
				"east": {"uv": [8.75, 15, 11.5, 16], "texture": "#1"},
				"south": {"uv": [8, 15, 9, 16], "texture": "#1"},
				"west": {"uv": [4.5, 15, 7.25, 16], "texture": "#1"},
				"up": {"uv": [8, 4.5, 9, 7.25], "texture": "#1"},
				"down": {"uv": [8, 8.75, 9, 11.5], "texture": "#1"}
			}
		},
		{
			"from": [8, 1, 4.5],
			"to": [9, 3, 5.25],
			"rotation": {"angle": 0, "axis": "y", "origin": [7, 9, 4.25]},
			"faces": {
				"north": {"uv": [7, 13, 8, 15], "texture": "#1"},
				"east": {"uv": [10.75, 13, 11.5, 15], "texture": "#1"},
				"south": {"uv": [8, 13, 9, 15], "texture": "#1"},
				"west": {"uv": [4.5, 13, 5.25, 15], "texture": "#1"},
				"up": {"uv": [8, 4.5, 9, 5.25], "texture": "#1"},
				"down": {"uv": [8, 10.75, 9, 11.5], "texture": "#1"}
			}
		},
		{
			"from": [7, 3, 4.5],
			"to": [10, 6, 5.25],
			"rotation": {"angle": 0, "axis": "y", "origin": [7, 11, 4.25]},
			"faces": {
				"north": {"uv": [6, 10, 9, 13], "texture": "#1"},
				"east": {"uv": [10.75, 10, 11.5, 13], "texture": "#1"},
				"south": {"uv": [7, 10, 10, 13], "texture": "#1"},
				"west": {"uv": [4.5, 10, 5.25, 13], "texture": "#1"},
				"up": {"uv": [7, 4.5, 10, 5.25], "texture": "#1"},
				"down": {"uv": [7, 10.75, 10, 11.5], "texture": "#1"}
			}
		},
		{
			"from": [7, 6, 4.5],
			"to": [10, 7, 11],
			"rotation": {"angle": 0, "axis": "y", "origin": [8, 14, 8]},
			"faces": {
				"north": {"uv": [6, 9, 9, 10], "texture": "#1"},
				"east": {"uv": [5, 9, 11.5, 10], "texture": "#1"},
				"south": {"uv": [7, 9, 10, 10], "texture": "#1"},
				"west": {"uv": [4.5, 9, 11, 10], "texture": "#1"},
				"up": {"uv": [7, 4.5, 10, 11], "texture": "#1"},
				"down": {"uv": [7, 5, 10, 11.5], "texture": "#1"}
			}
		},
		{
			"from": [8.25, 7, 6.5],
			"to": [8.25, 21, 10.5],
			"rotation": {"angle": 0, "axis": "y", "origin": [8.75, 15, 8]},
			"faces": {
				"north": {"uv": [7.75, -5, 7.75, 9], "texture": "#2"},
				"east": {"uv": [4, 0, 0, 16], "texture": "#2"},
				"south": {"uv": [8.25, -5, 8.25, 9], "texture": "#2"},
				"west": {"uv": [0, 0, 4, 16], "texture": "#2"},
				"up": {"uv": [8.25, 6.5, 8.25, 10.5], "texture": "#2"},
				"down": {"uv": [8.25, 5.5, 8.25, 9.5], "texture": "#2"}
			}
		},
		{
			"from": [7.5, 1, 8.5],
			"to": [9.5, 6, 10.5],
			"rotation": {"angle": 0, "axis": "y", "origin": [4, 9, 9]},
			"faces": {
				"north": {"uv": [6.5, 10, 8.5, 15], "texture": "#0"},
				"east": {"uv": [5.5, 10, 7.5, 15], "texture": "#0"},
				"south": {"uv": [7.5, 10, 9.5, 15], "texture": "#0"},
				"west": {"uv": [8.5, 10, 10.5, 15], "texture": "#0"},
				"up": {"uv": [7.5, 8.5, 9.5, 10.5], "texture": "#0"},
				"down": {"uv": [7.5, 5.5, 9.5, 7.5], "texture": "#0"}
			}
		}
	],
	"display": {
		"thirdperson_righthand": {
			"translation": [0, 2.5, 0]
		},
		"thirdperson_lefthand": {
			"translation": [0, 2.5, 0]
		},
		"ground": {
			"translation": [0, 2, 0],
			"scale": [0.5, 0.5, 0.5]
		},
		"gui": {
			"rotation": [107, 71, -80],
			"translation": [0, -0.75, 0],
			"scale": [0.625, 0.625, 0.625]
		},
		"head": {
			"rotation": [-140, -7, 0],
			"translation": [0, 11, -2.5]
		},
		"fixed": {
			"rotation": [0, 90, 0],
			"translation": [0.75, -0.5, 0],
			"scale": [0.6, 0.6, 0.6]
		}
	}
}