{
	"credit": "Made with Blockbench",
	"textures": {
		"0": "block/stripped_oak_log",
		"2": "block/anvil",
		"particle": "block/stripped_oak_log"
	},
	"elements": [
		{
			"from": [7, 0, 14],
			"to": [9, 3, 16],
			"faces": {
				"north": {"uv": [0.1, 0.1, 1.9, 2.9], "texture": "#0"},
				"east": {"uv": [0.1, 0.1, 1.9, 2.9], "texture": "#0"},
				"south": {"uv": [0.1, 0.1, 1.9, 2.9], "texture": "#0"},
				"west": {"uv": [0.1, 0.1, 1.9, 2.9], "texture": "#0"},
				"up": {"uv": [0.1, 0.1, 1.9, 1.9], "texture": "#0"},
				"down": {"uv": [0.1, 0.1, 1.9, 1.9], "texture": "#0"}
			}
		},
		{
			"from": [7, 1.65901, 14.76256],
			"to": [9, 4.65901, 16.76256],
			"rotation": {"angle": -45, "axis": "x", "origin": [8, 1.40901, 14.76256]},
			"faces": {
				"north": {"uv": [0, 13, 1.968, 15.968], "texture": "#0"},
				"east": {"uv": [0, 13, 1.968, 15.968], "texture": "#0"},
				"south": {"uv": [0, 13, 1.968, 15.968], "texture": "#0"},
				"west": {"uv": [0, 13, 1.968, 15.968], "texture": "#0"},
				"up": {"uv": [0, 13, 1.968, 15.968], "texture": "#0"},
				"down": {"uv": [0, 13, 1.968, 15.968], "texture": "#0"}
			}
		},
		{
			"from": [7, 3.70711, 5.46447],
			"to": [9, 4.45711, 13.46447],
			"rotation": {"angle": 0, "axis": "x", "origin": [8, 0.45711, 15.46447]},
			"faces": {
				"north": {"uv": [0.016, 0.016, 1.984, 0.75], "texture": "#0"},
				"east": {"uv": [0.016, 0.016, 7.984, 0.75], "texture": "#0"},
				"south": {"uv": [0.016, 0.016, 1.984, 0.75], "texture": "#0"},
				"west": {"uv": [0.016, 0.016, 7.984, 0.75], "texture": "#0"},
				"up": {"uv": [0.016, 0.016, 1.984, 7.984], "texture": "#0"},
				"down": {"uv": [0.016, 0.016, 1.984, 7.984], "texture": "#0"}
			}
		},
		{
			"from": [7.5, 3.65711, 7.46447],
			"to": [8.5, 3.70711, 12.21447],
			"rotation": {"angle": 0, "axis": "x", "origin": [8, 0.45711, 15.46447]},
			"color": 5,
			"faces": {
				"north": {"uv": [0, 0, 1, 0.05], "texture": "#missing"},
				"east": {"uv": [0, 0, 4.75, 0.05], "texture": "#missing"},
				"south": {"uv": [0, 0, 1, 0.05], "texture": "#missing"},
				"west": {"uv": [0, 0, 4.75, 0.05], "texture": "#missing"},
				"up": {"uv": [0, 0, 1, 4.75], "texture": "#missing"},
				"down": {"uv": [0, 0, 1, 4.75], "texture": "#missing"}
			}
		},
		{
			"from": [7.5, 2.85711, 11.21447],
			"to": [8.5, 3.65711, 11.46447],
			"rotation": {"angle": 0, "axis": "x", "origin": [8, 0.45711, 15.46447]},
			"faces": {
				"north": {"uv": [0, 0, 1, 0.8], "texture": "#2"},
				"east": {"uv": [0, 0, 0.25, 0.8], "texture": "#2"},
				"south": {"uv": [0, 0, 1, 0.8], "texture": "#2"},
				"west": {"uv": [0, 0, 0.25, 0.8], "texture": "#2"},
				"up": {"uv": [0, 0, 1, 0.25], "texture": "#2"},
				"down": {"uv": [0, 0, 1, 0.25], "texture": "#2"}
			}
		},
		{
			"from": [7.85, 2.85711, 10.36447],
			"to": [8.1, 3.65711, 10.46447],
			"rotation": {"angle": 22.5, "axis": "x", "origin": [7.975, 3.65711, 10.46447]},
			"faces": {
				"north": {"uv": [0, 0, 0.25, 0.8], "texture": "#2"},
				"east": {"uv": [0, 0, 0.1, 0.8], "texture": "#2"},
				"south": {"uv": [0, 0, 0.25, 0.8], "texture": "#2"},
				"west": {"uv": [0, 0, 0.1, 0.8], "texture": "#2"},
				"up": {"uv": [0, 0, 0.25, 0.1], "texture": "#2"},
				"down": {"uv": [0, 0, 0.25, 0.1], "texture": "#2"}
			}
		},
		{
			"from": [7.5, 2.85711, 8.96447],
			"to": [8.5, 3.65711, 9.21447],
			"rotation": {"angle": 0, "axis": "x", "origin": [8, 0.45711, 15.46447]},
			"faces": {
				"north": {"uv": [0, 0, 1, 0.8], "texture": "#2"},
				"east": {"uv": [0, 0, 0.25, 0.8], "texture": "#2"},
				"south": {"uv": [0, 0, 1, 0.8], "texture": "#2"},
				"west": {"uv": [0, 0, 0.25, 0.8], "texture": "#2"},
				"up": {"uv": [0, 0, 1, 0.25], "texture": "#2"},
				"down": {"uv": [0, 0, 1, 0.25], "texture": "#2"}
			}
		},
		{
			"from": [7.5, 2.60711, 9.21447],
			"to": [8.5, 2.85711, 11.21447],
			"rotation": {"angle": 0, "axis": "x", "origin": [8, 0.45711, 15.46447]},
			"faces": {
				"north": {"uv": [0, 0, 1, 0.25], "texture": "#2"},
				"east": {"uv": [0, 0, 2, 0.25], "texture": "#2"},
				"south": {"uv": [0, 0, 1, 0.25], "texture": "#2"},
				"west": {"uv": [0, 0, 2, 0.25], "texture": "#2"},
				"up": {"uv": [0, 0, 1, 2], "texture": "#2"},
				"down": {"uv": [0, 0, 1, 2], "texture": "#2"}
			}
		},
		{
			"from": [7, 4.45711, 11.46447],
			"to": [9, 5.63211, 13.86447],
			"rotation": {"angle": 0, "axis": "x", "origin": [8, 0.45711, 15.46447]},
			"faces": {
				"north": {"uv": [0.016, 0.016, 1.984, 1.175], "texture": "#0"},
				"east": {"uv": [0.016, 0.016, 2.4, 1.175], "texture": "#0"},
				"south": {"uv": [0.016, 0.016, 1.984, 1.175], "texture": "#0"},
				"west": {"uv": [0.016, 0.016, 2.4, 1.175], "texture": "#0"},
				"up": {"uv": [0.016, 0.016, 1.984, 2.4], "texture": "#0"},
				"down": {"uv": [0.016, 0.016, 1.984, 2.4], "texture": "#0"}
			}
		},
		{
			"from": [8.5, 4.45711, 5.46447],
			"to": [9, 5.20711, 11.46447],
			"rotation": {"angle": 0, "axis": "x", "origin": [8, 0.45711, 15.46447]},
			"faces": {
				"north": {"uv": [0, 0, 0.5, 0.75], "texture": "#0"},
				"east": {"uv": [0, 0, 6, 0.75], "texture": "#0"},
				"south": {"uv": [0, 0, 0.5, 0.75], "texture": "#0"},
				"west": {"uv": [0, 0, 6, 0.75], "texture": "#0"},
				"up": {"uv": [0, 0, 0.5, 6], "texture": "#0"},
				"down": {"uv": [0, 0, 0.5, 6], "texture": "#0"}
			}
		},
		{
			"from": [7, 4.45711, 5.46447],
			"to": [7.5, 5.20711, 11.46447],
			"rotation": {"angle": 0, "axis": "x", "origin": [8, 0.45711, 15.46447]},
			"faces": {
				"north": {"uv": [0, 0, 0.5, 0.75], "texture": "#0"},
				"east": {"uv": [0, 0, 6, 0.75], "texture": "#0"},
				"south": {"uv": [0, 0, 0.5, 0.75], "texture": "#0"},
				"west": {"uv": [0, 0, 6, 0.75], "texture": "#0"},
				"up": {"uv": [0, 0, 0.5, 6], "texture": "#0"},
				"down": {"uv": [0, 0, 0.5, 6], "texture": "#0"}
			}
		},
		{
			"from": [7.5, 5.23211, 2.46447],
			"to": [8.5, 5.45711, 11.46447],
			"rotation": {"angle": 0, "axis": "x", "origin": [8, 0.45711, 15.46447]},
			"faces": {
				"north": {"uv": [0, 0, 1, 0.225], "texture": "#2"},
				"east": {"uv": [0, 0, 9, 0.225], "texture": "#2"},
				"south": {"uv": [0, 0, 1, 0.225], "texture": "#2"},
				"west": {"uv": [0, 0, 9, 0.225], "texture": "#2"},
				"up": {"uv": [0, 0, 1, 9], "texture": "#2"},
				"down": {"uv": [0, 0, 1, 9], "texture": "#2"}
			}
		},
		{
			"from": [7.5, 4.50711, 2.46447],
			"to": [8.5, 4.73211, 11.46447],
			"rotation": {"angle": 0, "axis": "x", "origin": [8, 0.45711, 15.46447]},
			"faces": {
				"north": {"uv": [0, 0, 1, 0.225], "texture": "#2"},
				"east": {"uv": [0, 0, 9, 0.225], "texture": "#2"},
				"south": {"uv": [0, 0, 1, 0.225], "texture": "#2"},
				"west": {"uv": [0, 0, 9, 0.225], "texture": "#2"},
				"up": {"uv": [0, 0, 1, 9], "texture": "#2"},
				"down": {"uv": [0, 0, 1, 9], "texture": "#2"}
			}
		},
		{
			"from": [7.75, 4.73211, 11.21447],
			"to": [8.25, 5.23211, 11.46447],
			"rotation": {"angle": 0, "axis": "x", "origin": [8, 0.45711, 15.46447]},
			"faces": {
				"north": {"uv": [0, 0, 0.5, 0.5], "texture": "#2"},
				"east": {"uv": [0, 0, 0.25, 0.5], "texture": "#2"},
				"south": {"uv": [0, 0, 0.5, 0.5], "texture": "#2"},
				"west": {"uv": [0, 0, 0.25, 0.5], "texture": "#2"},
				"up": {"uv": [0, 0, 0.5, 0.25], "texture": "#2"},
				"down": {"uv": [0, 0, 0.5, 0.25], "texture": "#2"}
			}
		},
		{
			"from": [7.5, 4.73211, 2.46447],
			"to": [7.75, 5.23211, 11.46447],
			"rotation": {"angle": 0, "axis": "x", "origin": [8, 0.45711, 15.46447]},
			"faces": {
				"north": {"uv": [0, 0, 0.25, 0.5], "texture": "#2"},
				"east": {"uv": [0, 0, 9, 0.5], "texture": "#2"},
				"south": {"uv": [0, 0, 0.25, 0.5], "texture": "#2"},
				"west": {"uv": [0, 0, 9, 0.5], "texture": "#2"},
				"up": {"uv": [0, 0, 0.25, 9], "texture": "#2"},
				"down": {"uv": [0, 0, 0.25, 9], "texture": "#2"}
			}
		},
		{
			"from": [8.25, 4.73211, 2.46447],
			"to": [8.5, 5.23211, 11.46447],
			"rotation": {"angle": 0, "axis": "x", "origin": [8, 0.45711, 15.46447]},
			"faces": {
				"north": {"uv": [0, 0, 0.25, 0.5], "texture": "#2"},
				"east": {"uv": [0, 0, 9, 0.5], "texture": "#2"},
				"south": {"uv": [0, 0, 0.25, 0.5], "texture": "#2"},
				"west": {"uv": [0, 0, 9, 0.5], "texture": "#2"},
				"up": {"uv": [0, 0, 0.25, 9], "texture": "#2"},
				"down": {"uv": [0, 0, 0.25, 9], "texture": "#2"}
			}
		},
		{
			"from": [6.725, 4.45711, 11.16447],
			"to": [6.975, 4.78211, 11.51447],
			"rotation": {"angle": 0, "axis": "x", "origin": [6.85, 4.58836, 11.32697]},
			"faces": {
				"north": {"uv": [0, 0, 0.25, 0.325], "texture": "#2"},
				"east": {"uv": [0, 0, 0.35, 0.325], "texture": "#2"},
				"south": {"uv": [0, 0, 0.25, 0.325], "texture": "#2"},
				"west": {"uv": [0, 0, 0.35, 0.325], "texture": "#2"},
				"up": {"uv": [0, 0, 0.25, 0.35], "texture": "#2"},
				"down": {"uv": [0, 0, 0.25, 0.35], "texture": "#2"}
			}
		},
		{
			"from": [6.725, 4.78211, 11.21447],
			"to": [6.975, 5.53211, 11.46447],
			"rotation": {"angle": 0, "axis": "x", "origin": [6.85, 4.58836, 11.32697]},
			"faces": {
				"north": {"uv": [0, 0, 0.25, 0.75], "texture": "#2"},
				"east": {"uv": [0, 0, 0.25, 0.75], "texture": "#2"},
				"south": {"uv": [0, 0, 0.25, 0.75], "texture": "#2"},
				"west": {"uv": [0, 0, 0.25, 0.75], "texture": "#2"},
				"up": {"uv": [0, 0, 0.25, 0.25], "texture": "#2"},
				"down": {"uv": [0, 0, 0.25, 0.25], "texture": "#2"}
			}
		},
		{
			"from": [6.725, 5.83211, 10.96447],
			"to": [6.975, 5.98211, 11.71447],
			"rotation": {"angle": 0, "axis": "x", "origin": [6.85, 4.58836, 11.32697]},
			"faces": {
				"north": {"uv": [0, 0, 0.25, 0.15], "texture": "#2"},
				"east": {"uv": [0, 0, 0.75, 0.15], "texture": "#2"},
				"south": {"uv": [0, 0, 0.25, 0.15], "texture": "#2"},
				"west": {"uv": [0, 0, 0.75, 0.15], "texture": "#2"},
				"up": {"uv": [0, 0, 0.25, 0.75], "texture": "#2"},
				"down": {"uv": [0, 0, 0.25, 0.75], "texture": "#2"}
			}
		},
		{
			"from": [6.725, 5.68211, 10.71447],
			"to": [6.975, 5.83211, 11.46447],
			"rotation": {"angle": 0, "axis": "x", "origin": [6.85, 4.58836, 11.32697]},
			"faces": {
				"north": {"uv": [6, 1, 6.75, 1.15], "texture": "#2"},
				"east": {"uv": [6, 1, 6.75, 1.15], "texture": "#2"},
				"south": {"uv": [6, 1, 6.75, 1.15], "texture": "#2"},
				"west": {"uv": [6, 1, 6.75, 1.15], "texture": "#2"},
				"up": {"uv": [6, 1, 6.75, 1.15], "texture": "#2"},
				"down": {"uv": [6, 1, 6.75, 1.15], "texture": "#2"}
			}
		},
		{
			"from": [6.725, 5.53211, 10.96447],
			"to": [6.975, 5.68211, 11.71447],
			"rotation": {"angle": 0, "axis": "x", "origin": [6.85, 4.58836, 11.32697]},
			"faces": {
				"north": {"uv": [0, 0, 0.25, 0.15], "texture": "#2"},
				"east": {"uv": [0, 0, 0.75, 0.15], "texture": "#2"},
				"south": {"uv": [0, 0, 0.25, 0.15], "texture": "#2"},
				"west": {"uv": [0, 0, 0.75, 0.15], "texture": "#2"},
				"up": {"uv": [0, 0, 0.25, 0.75], "texture": "#2"},
				"down": {"uv": [0, 0, 0.25, 0.75], "texture": "#2"}
			}
		},
		{
			"from": [6.725, 5.55711, 11.71447],
			"to": [6.975, 6.15711, 11.81447],
			"rotation": {"angle": 0, "axis": "x", "origin": [6.85, 4.58836, 11.32697]},
			"faces": {
				"north": {"uv": [0, 0, 0.25, 0.6], "texture": "#2"},
				"east": {"uv": [0, 0, 0.1, 0.6], "texture": "#2"},
				"south": {"uv": [0, 0, 0.25, 0.6], "texture": "#2"},
				"west": {"uv": [0, 0, 0.1, 0.6], "texture": "#2"},
				"up": {"uv": [0, 0, 0.25, 0.1], "texture": "#2"},
				"down": {"uv": [0, 0, 0.25, 0.1], "texture": "#2"}
			}
		},
		{
			"from": [6.975, 3.95711, 8.46447],
			"to": [6.975, 5.20711, 12.46447],
			"rotation": {"angle": 0, "axis": "x", "origin": [8, 0.45711, 15.46447]},
			"faces": {
				"north": {"uv": [0, 0, 0, 1.25], "texture": "#2"},
				"east": {"uv": [0, 0, 4, 1.25], "texture": "#2"},
				"south": {"uv": [0, 0, 0, 1.25], "texture": "#2"},
				"west": {"uv": [0, 0, 4, 1.25], "texture": "#2"},
				"up": {"uv": [0, 0, 0, 4], "texture": "#2"},
				"down": {"uv": [0, 0, 0, 4], "texture": "#2"}
			}
		},
		{
			"from": [6.975, 3.95711, 7.71447],
			"to": [6.975, 4.70711, 8.46447],
			"rotation": {"angle": 0, "axis": "x", "origin": [8, 0.45711, 15.46447]},
			"faces": {
				"north": {"uv": [0, 0, 0, 0.75], "texture": "#2"},
				"east": {"uv": [0, 0, 0.75, 0.75], "texture": "#2"},
				"south": {"uv": [0, 0, 0, 0.75], "texture": "#2"},
				"west": {"uv": [0, 0, 0.75, 0.75], "texture": "#2"},
				"up": {"uv": [0, 0, 0, 0.75], "texture": "#2"},
				"down": {"uv": [0, 0, 0, 0.75], "texture": "#2"}
			}
		},
		{
			"from": [6.725, 4.48211, 9.81447],
			"to": [6.975, 4.78211, 10.33947],
			"rotation": {"angle": 0, "axis": "x", "origin": [6.85, 4.58836, 11.32697]},
			"faces": {
				"north": {"uv": [0, 0, 0.25, 0.3], "texture": "#2"},
				"east": {"uv": [5, 1, 5.525, 1.3], "texture": "#2"},
				"south": {"uv": [0, 0, 0.25, 0.3], "texture": "#2"},
				"west": {"uv": [0, 0, 0.525, 0.3], "texture": "#2"},
				"up": {"uv": [0, 0, 0.25, 0.525], "texture": "#2"},
				"down": {"uv": [0, 0, 0.25, 0.525], "texture": "#2"}
			}
		},
		{
			"from": [6.725, 4.78211, 9.56447],
			"to": [6.975, 4.93211, 10.33947],
			"rotation": {"angle": 0, "axis": "x", "origin": [6.85, 4.85711, 9.65197]},
			"faces": {
				"north": {"uv": [0, 0, 0.25, 0.15], "texture": "#2"},
				"east": {"uv": [0, 0, 0.775, 0.15], "texture": "#2"},
				"south": {"uv": [0, 0, 0.25, 0.15], "texture": "#2"},
				"west": {"uv": [0, 0, 0.775, 0.15], "texture": "#2"},
				"up": {"uv": [0, 0, 0.25, 0.775], "texture": "#2"},
				"down": {"uv": [0, 0, 0.25, 0.775], "texture": "#2"}
			}
		},
		{
			"from": [6.725, 4.93211, 9.31447],
			"to": [6.975, 5.03211, 9.73947],
			"rotation": {"angle": 0, "axis": "x", "origin": [6.85, 4.85711, 9.65197]},
			"faces": {
				"north": {"uv": [0, 0, 0.25, 0.1], "texture": "#2"},
				"east": {"uv": [0, 0, 0.425, 0.1], "texture": "#2"},
				"south": {"uv": [0, 0, 0.25, 0.1], "texture": "#2"},
				"west": {"uv": [0, 0, 0.425, 0.1], "texture": "#2"},
				"up": {"uv": [0, 0, 0.25, 0.425], "texture": "#2"},
				"down": {"uv": [0, 0, 0.25, 0.425], "texture": "#2"}
			}
		},
		{
			"from": [6.725, 4.93211, 10.16447],
			"to": [6.975, 6.08211, 10.33947],
			"rotation": {"angle": 0, "axis": "x", "origin": [6.85, 4.85711, 9.65197]},
			"faces": {
				"north": {"uv": [0, 0, 0.25, 1.15], "texture": "#2"},
				"east": {"uv": [0, 0, 0.175, 1.15], "texture": "#2"},
				"south": {"uv": [0, 0, 0.25, 1.15], "texture": "#2"},
				"west": {"uv": [0, 0, 0.175, 1.15], "texture": "#2"},
				"up": {"uv": [0, 0, 0.25, 0.175], "texture": "#2"},
				"down": {"uv": [0, 0, 0.25, 0.175], "texture": "#2"}
			}
		}
	],
	"display": {
		"thirdperson_righthand": {
			"translation": [0, 4.75, -4.75]
		},
		"thirdperson_lefthand": {
			"translation": [0, 4.75, -4.75]
		},
		"firstperson_righthand": {
			"translation": [0, 6.5, 0]
		},
		"firstperson_lefthand": {
			"translation": [0, 6.5, 0]
		},
		"ground": {
			"translation": [0, 2, 0],
			"scale": [0.5, 0.5, 0.5]
		},
		"gui": {
			"rotation": [27, 58, -4],
			"translation": [-0.5, 4.5, 0]
		},
		"head": {
			"translation": [0, 12.25, -12]
		}
	},
	"groups": [0, 1, 2, 3, 4, 5, 6, 7, 8, 9, 10, 11, 12, 13, 14, 15,
		{
			"name": "lock",
			"origin": [8, 0.45711, 15.46447],
			"children": [
				{
					"name": "hammertime",
					"origin": [8, 0.78211, 15.46447],
					"children": [16, 17, 18, 19, 20, 21]
				}, 22, 23, 24,
				{
					"name": "frizzen",
					"origin": [6.85, 4.58836, 11.32697],
					"children": [25, 26, 27]
				}
			]
		}
	],
	"overrides":[
		{
			"predicate":{
				"pirates:state" : 0
			},
			"model":"pirates:item/flintlock_empty"
		},
		{
			"predicate":{
				"pirates:state" : 1
			},
			"model":"pirates:item/flintlock"
		}
	]
}