{
	"credit": "Made with Blockbench",
	"textures": {
		"0": "block/anvil",
		"1": "block/stripped_oak_log",
		"2": "block/item_frame",
		"particle": "block/anvil"
	},
	"elements": [
		{
			"from": [5.5, 0, 2],
			"to": [10.5, 0.5, 12],
			"faces": {
				"north": {"uv": [0, 0, 5, 0.5], "texture": "#2"},
				"east": {"uv": [0, 0, 10, 0.5], "texture": "#2"},
				"south": {"uv": [0, 0, 5, 0.5], "texture": "#2"},
				"west": {"uv": [0, 0, 10, 0.5], "texture": "#2"},
				"up": {"uv": [6, 5, 11, 15], "texture": "#2"},
				"down": {"uv": [1, 1, 6, 11], "texture": "#2"}
			}
		},
		{
			"from": [5.75, 0.5, 2.25],
			"to": [10.25, 1, 8],
			"faces": {
				"north": {"uv": [0, 0, 4.5, 0.5], "texture": "#2"},
				"east": {"uv": [0, 0, 5.75, 0.5], "texture": "#2"},
				"south": {"uv": [2, 1, 6.5, 1.5], "texture": "#2"},
				"west": {"uv": [0, 0, 5.75, 0.5], "texture": "#2"},
				"up": {"uv": [6, 1, 10.5, 6.75], "texture": "#2"},
				"down": {"uv": [0, 0, 4.5, 5.75], "texture": "#2"}
			}
		},
		{
			"from": [8.5, 0.5, 8],
			"to": [9.25, 1, 11],
			"faces": {
				"north": {"uv": [0, 0, 0.75, 0.5], "texture": "#0"},
				"east": {"uv": [0, 0, 3, 0.5], "texture": "#0"},
				"south": {"uv": [0, 0, 0.75, 0.5], "texture": "#0"},
				"west": {"uv": [0, 0, 3, 0.5], "texture": "#0"},
				"up": {"uv": [1, 0, 1.75, 3], "texture": "#0"},
				"down": {"uv": [0, 0, 0.75, 3], "texture": "#0"}
			}
		},
		{
			"from": [6.5, 0.5, 8],
			"to": [7.25, 1, 9],
			"faces": {
				"north": {"uv": [0, 0, 0.75, 0.5], "texture": "#1"},
				"east": {"uv": [0, 0, 1, 0.5], "texture": "#1"},
				"south": {"uv": [0, 0, 0.75, 0.5], "texture": "#1"},
				"west": {"uv": [0, 0, 1, 0.5], "texture": "#1"},
				"up": {"uv": [0, 0, 0.75, 1], "texture": "#1"},
				"down": {"uv": [0, 0, 0.75, 1], "texture": "#1"}
			}
		},
		{
			"from": [6.625, 0.5, 9],
			"to": [7.125, 1, 11],
			"faces": {
				"north": {"uv": [0, 0, 0.5, 0.5], "texture": "#0"},
				"east": {"uv": [0, 0, 2, 0.5], "texture": "#0"},
				"south": {"uv": [0, 0, 0.5, 0.5], "texture": "#0"},
				"west": {"uv": [0, 0, 2, 0.5], "texture": "#0"},
				"up": {"uv": [4, 0, 4.5, 2], "texture": "#0"},
				"down": {"uv": [0, 0, 0.5, 2], "texture": "#0"}
			}
		},
		{
			"from": [9.25, 0.5, 10],
			"to": [10.25, 1, 11],
			"faces": {
				"north": {"uv": [0, 0, 1, 0.5], "texture": "#0"},
				"east": {"uv": [0, 0, 1, 0.5], "texture": "#0"},
				"south": {"uv": [0, 0, 1, 0.5], "texture": "#0"},
				"west": {"uv": [0, 0, 1, 0.5], "texture": "#0"},
				"up": {"uv": [0, 0, 1, 1], "texture": "#0"},
				"down": {"uv": [0, 0, 1, 1], "texture": "#0"}
			}
		}
	],
	"display": {
		"thirdperson_righthand": {
			"rotation": [-89, 0, 0],
			"translation": [0, 1.25, -4.5],
			"scale": [0.55, 0.55, 0.55]
		},
		"thirdperson_lefthand": {
			"rotation": [-89, 0, 0],
			"translation": [0, 1.25, -4.5],
			"scale": [0.55, 0.55, 0.55]
		},
		"firstperson_righthand": {
			"rotation": [88, -180, -42],
			"translation": [-0.12, 3.2, 3.63],
			"scale": [0.68, 0.68, 0.68]
		},
		"firstperson_lefthand": {
			"rotation": [88, -180, -42],
			"translation": [-0.12, 3.2, 3.63],
			"scale": [0.68, 0.68, 0.68]
		},
		"ground": {
			"translation": [0, 2, 0],
			"scale": [0.5, 0.5, 0.5]
		},
		"gui": {
			"rotation": [74, -180, -17],
			"translation": [-2.5, 2.25, 0]
		},
		"head": {
			"rotation": [0, 180, 0],
			"translation": [0, 14.25, -1]
		},
		"fixed": {
			"rotation": [-90, 0, 0],
			"translation": [0, 0, -8]
		}
	}
}