{
  "parent": "pirates:block/railings",
  "textures": {
    "0": "pirates:block/wood/ghastly_log",
    "3": "pirates:block/wood/ghastly_stripped",
    "particles": "pirates:block/wood/ghastly_log"
  }
}