{
  "type": "minecraft:block",
  "pools": [
    {
      "rolls": 1,
      "entries": [
        {
          "type": "item",
          "name": "pirates:wood/ghastly_planks"
        }
      ]
    }
  ]
}