{
	"type":"minecraft:crafting_shapeless",
	"ingredients":[
		{
			"item":"minecraft:wheat"
		},
		{
			"item":"minecraft:water_bucket"
		}
	],
	"result":{
		"item":"pirates:hardtack",
		"count": 8
	}
}