{
  "variants": {
    "bottom\u003dfalse,facing\u003dwest": {
      "model": "pirates:block/ratlines",
      "y": 270
    },
    "bottom\u003dtrue,facing\u003dsouth": {
      "model": "pirates:block/ratlines_base",
      "y": 180
    },
    "bottom\u003dtrue,facing\u003dwest": {
      "model": "pirates:block/ratlines_base",
      "y": 270
    },
    "bottom\u003dtrue,facing\u003dnorth": {
      "model": "pirates:block/ratlines_base",
      "y": 0
    },
    "bottom\u003dfalse,facing\u003deast": {
      "model": "pirates:block/ratlines",
      "y": 90
    },
    "bottom\u003dfalse,facing\u003dsouth": {
      "model": "pirates:block/ratlines",
      "y": 180
    },
    "bottom\u003dtrue,facing\u003deast": {
      "model": "pirates:block/ratlines_base",
      "y": 90
    },
    "bottom\u003dfalse,facing\u003dnorth": {
      "model": "pirates:block/ratlines",
      "y": 0
    }
  }
}