{
  "variants": {
  	"facing=north":{
  		"model":"pirates:block/ships_wheel",
  		"y": 0
  	},
  	"facing=east":{
  		"model":"pirates:block/ships_wheel",
  		"y": 90
  	},
  	"facing=south":{
  		"model":"pirates:block/ships_wheel",
  		"y": 180
  	},
  	"facing=west":{
  		"model":"pirates:block/ships_wheel",
  		"y": 270
  	}
  }
}