{
  "ingredients": [
    {
      "tag": "forge:string"
    },
    {
      "tag": "forge:string"
    },
    {
      "item": "minecraft:stick"
    },
    {
      "item": "minecraft:stick"
    }
  ],
  "result": {
    "item": "pirates:ratlines",
    "count": 8
  }
}