{
  "ingredients": [
    {
      "tag": "forge:ingots/iron"
    },
    {
      "tag": "forge:gunpowder"
    },
    {
      "item": "minecraft:paper"
    }
  ],
  "result": {
    "item": "pirates:cartridge",
    "count": 9
  }
}