{
  "ingredients": [
    {
      "tag": "minecraft:planks"
    },
    {
      "item": "pirates:chain"
    },
    {
      "tag": "minecraft:planks"
    },
    {
      "item": "pirates:chain"
    }
  ],
  "result": {
    "item": "pirates:boat_sling",
    "count": 1
  }
}