{
	"ingredients":[
		{
			"item": "oak_planks"
		},
		{
			"item": "oak_planks"
		},
		{
			"item": "oak_planks"
		},
		{
			"item": "oak_planks"
		}
	],
	"result":{
		"item":"pirates:crate",
		"count": 1
	}
}