{
  "ingredients": [
    {
      "item": "minecraft:black_wool"
    },
    {
      "item": "minecraft:black_wool"
    },
    [
      {
        "item": "minecraft:stripped_birch_log"
      },
      {
        "item": "minecraft:stripped_acacia_log"
      },
      {
        "item": "minecraft:stripped_dark_oak_log"
      },
      {
        "item": "minecraft:stripped_jungle_log"
      },
      {
        "item": "minecraft:stripped_oak_log"
      },
      {
        "item": "minecraft:stripped_spruce_log"
      }
    ]
  ],
  "result": {
    "item": "pirates:main_sail",
    "count": 1
  }
}